<?xml version="1.0" encoding="utf-8"?>
<!-- Generator: Adobe Illustrator 18.0.0, SVG Export Plug-In . SVG Version: 6.00 Build 0)  -->
<!DOCTYPE svg PUBLIC "-//W3C//DTD SVG 1.1//EN" "http://www.w3.org/Graphics/SVG/1.1/DTD/svg11.dtd">
<svg version="1.1" id="Camada_1" xmlns="http://www.w3.org/2000/svg" xmlns:xlink="http://www.w3.org/1999/xlink" x="0px" y="0px"
	 viewBox="0 0 841.9 595.3" enable-background="new 0 0 841.9 595.3" xml:space="preserve">
<g>
	<path fill="#010202" d="M428.8,372.8c-28.2,28.2-56,56-83.7,83.7c-25.1-25.1-50.2-50.2-75.2-75.2c27.7-27.7,55.5-55.5,83.4-83.4
		c-28.2-28.1-56.1-55.8-83.9-83.5c25.4-25.4,50.4-50.4,75.7-75.7c27.7,27.7,55.5,55.5,83.4,83.4c27.8-27.8,55.6-55.6,83.1-83.1
		c25.1,25.1,50.2,50.2,75.2,75.2c-27.5,27.5-55.3,55.3-83.1,83.1c28.1,28.1,55.8,55.8,83.6,83.6c-25.4,25.2-50.5,50.1-75.5,75
		C484.5,428.5,456.7,400.7,428.8,372.8z"/>
</g>
<g>
</g>
<g>
</g>
<g>
</g>
<g>
</g>
<g>
</g>
<g>
</g>
</svg>
